Example workflow • varikondo
…
## 
## Attaching package: 'dplyr'

## The following objects are masked from 'package:stats':
## 
##     filter, lag

## The following objects are masked from 'package:base':
## 
##     intersect, setdiff, setequal, union

example_data

## # A tibble: 124 x 6
##    Batch     ID DiseaseType Gender Patient Time 
##    <chr>  <dbl> <chr>       <chr>  <chr>   <chr>
##  1 Batch1   126 A           Female A1      Time0
##  2 Batch1   128 A           Female A1      Time2
##  3 Batch1   127 A           Female A1      Time1
##  4 Batch1   129 A           Male   A2      Time0
##  5 Batch1   130 A           Male   A2      Time1
##  6 Batch2     2 B           Male   A3      Time0
##  7 Batch2     3 B           Male   A3      Time1
##  8 Batch2     4 B           Male   A3      Time1
##  9 Batch1     6 A           Male   A4      Time0
## 10 Batch1     7 A           Male   A4      Time1
## # … with 114 more rows
…
